<svg id="Title" xmlns="http://www.w3.org/2000/svg" width="284" height="133" viewBox="0 0 284 133">
  <defs>
    <style>
      .cls-1 {
        fill: #78a422;
        font-size: 100px;
        font-family: SegoeUI, Segoe UI;
      }

      .cls-2 {
        fill: #707070;
      }
    </style>
  </defs>
  <text id="tradee" class="cls-1" transform="translate(0 108)"><tspan x="0" y="0">tr</tspan><tspan class="cls-2" y="0">ad</tspan><tspan y="0">ee</tspan></text>
</svg>
